Alinuta: 
- Mami, ma arde fundul! 
Mama Alinutei: 
- Pai, arde-l si tu pe el!...

/* ######################################### */

Alt bank aici

/* ######################################### */

Inca un bank aici  rytretr

/* ######################################### */

Vedeti voi ce mai puneti